0.001,100,0.1053837487583971,0.012139442811656553,0.00875630339013369
0.005,100,0.4355782848018109,0.04604339450593497,0.02999579340772667
0.01,100,0.6991340946631813,0.06893460183927753,0.038846226579706544
0.05,100,1.090293764533245,0.1122290315063482,0.017776945124033133
0.1,100,1.0964346002127263,0.12447561694661015,0.005544098690852545
0.5,100,1.0964608113924048,0.12861719903393012,0.001402517186005723
1,100,1.096460811392405,0.1286172323233801,0.0014024838965588978
5,100,1.1342663808059969e+73,1.4237235999445029e+88,1.4237235999445023e+88
10,100,1.4391111405159356e+106,2.1331104287447503e+121,2.1331104287447503e+121
1,50,1.096460811392405,0.1286172325105272,0.0014025010592101312
